(;FF[4]GM[1]CA[UTF-8]AP[besogo:0.0.2-alpha]SZ[19]ST[0]
KM[6.5]DT[2022-04-04]PB[GNU Go 3.8 level 10]PW[Pachi 3d]RE[W+Resign]
C[asdfsdf
ываыва
===TAGS===
Фусеки
Джёсеки]
(;B[qd]CR[lo][mm]
;W[dp]
;B[pq]
;W[dc]
;B[oc]
;W[qo]
;B[pl]
;W[np]
;B[po]
;W[pn]
;B[qp]
;W[oo]
;B[pp]
;W[rn]
;B[nr]
;W[rp]
;B[rq]
;W[pi]
;B[de]
;W[dh]
;B[fe]
;W[fc]
;B[he]
;W[hc]
;B[dk]
;W[cm]
;B[qg]
;W[gh]
;B[fq]
;W[fp]
;B[gp]
;W[fo]
;B[eq]
;W[dq]
;B[jq]
;W[ol]
;B[ih]
;W[gf]
;B[dd]
;W[cc]
;B[ge]
;W[ig]
;B[je]
;W[jh]
;B[ii]
;W[if]
;B[ie]
;W[ji]
;B[ij]
;W[jj]
;B[pk]
;W[ik]
;B[oj]
;W[oi]
;B[gj]
;W[hk]
;B[gi]
;W[fh]
;B[fk]
;W[el]
;B[ek]
;W[bk]
;B[nj]
;W[pg]
;B[ip]
;W[qf]
;B[qh]
;W[pf]
;B[qj]
;W[qi]
;B[ni]
;W[ri]
;B[jc]
;W[om]
;B[md]
;W[mg]
;B[nh]
;W[ng]
;B[lj]
;W[kk]
;B[mm]
;W[ml]
;B[lp]
;W[ll]
;B[er]
;W[cj]
;B[gl]
;W[hm]
;B[bs]
;W[go]
;B[ho]
;W[hn]
;B[oe]
;W[mq]
;B[lg]
;W[lh]
;B[kg]
;W[kh]
;B[mh]
;W[oh]
;B[be]
;W[re]
;B[rd]
;W[sd]
;B[sc]
;W[se]
;B[rc]
;W[ib]
;B[jb]
;W[mr]
;B[in]
;W[im]
;B[jn]
;W[cr]
;B[cs]
;W[dr]
;B[hq]
;W[sq]
;B[sr]
;W[sp]
;B[rr]
;W[or]
;B[pr]
;W[ns]
;B[ds]
;W[cg]
;B[br]
;W[bp]
;B[mo]
;W[pj]
;B[ia]
;W[ha]
;B[ja]
;W[lf]
;B[kf]
;W[ok]
;B[le]
;W[jg]
;B[ed]
;W[gb]
;B[mf]
;W[bq]
;B[nf]
;W[og]
;B[])
(;B[oq]))