(;GM[1]FF[4]CA[UTF-8]AP[CGoban:3]ST[2]
RU[Japanese]SZ[19]KM[6.50]TM[2400]OT[3x20 byo-yomi]
PW[Fedya555]PB[dima228]WR[18k]BR[15k]DT[2020-11-07]PC[The KGS Go Server at http://www.gokgs.com/]RE[B+38.50]
;B[pp]BL[2394.452]
;W[dd]WL[2372.695]C[dima228 [15k?\]: ты с камерой?
]
;B[pd]BL[2378.82]C[Fedya555 [18k\]: нет
]
;W[dp]WL[2363.054]
;B[pj]BL[2359.142]
;W[dj]WL[2358.936]
;B[jp]BL[2355.509]
;W[jd]WL[2356.768]
;B[jj]BL[2353.748]
;W[nc]WL[2354.168]
;B[nf]BL[2348.18]
;W[pb]WL[2349.646]
;B[qc]BL[2344.904]
;W[lc]WL[2342.085]
;B[lf]BL[2340.596]
;W[if]WL[2338.338]
;B[jh]BL[2339.325]
;W[hh]WL[2336.034]
;B[hj]BL[2338.424]
;W[fi]WL[2333.257]
;B[fl]BL[2333.766]
;W[dl]WL[2330.764]
;B[fn]BL[2331.649]
;W[dn]WL[2325.63]
;B[mm]BL[2328.556]
;W[fq]WL[2323.164]
;B[gs]BL[2326.792]
;W[fr]WL[2319.759]
;B[gr]BL[2324.532]
;W[gq]WL[2316.786]
;B[hq]BL[2314.392]
;W[fs]WL[2307.953]
;B[hr]BL[2312.18]
;W[fo]WL[2303.914]
;B[ho]BL[2305.813]
;W[gp]WL[2302.287]
;B[hp]BL[2303.199]
;W[en]WL[2300.438]
;B[gn]BL[2300.943]
;W[qq]WL[2294.377]
;B[pq]BL[2298.367]
;W[qp]WL[2292.694]
;B[qo]BL[2296.56]
;W[ro]WL[2291.373]
;B[qn]BL[2293.861]
;W[rn]WL[2283.471]
;B[rm]BL[2291.603]
;W[pr]WL[2277.847]
;B[or]BL[2258.238]
;W[cc]WL[2272.5]
;B[fc]BL[2254.772]
;W[fe]WL[2268.205]
;B[hc]BL[2252.787]
;W[eb]WL[2265.623]
;B[gc]BL[2251.95]
;W[ib]WL[2264.199]
;B[ic]BL[2250.505]
;W[jc]WL[2262.7]
;B[hb]BL[2248.959]
;W[fb]WL[2257.598]
;B[ia]BL[2245.651]
;W[jb]WL[2255.964]
;B[ja]BL[2243.612]
;W[ka]WL[2254.081]
;B[ha]BL[2241.855]
;W[he]WL[2248.264]
;B[kb]BL[2239.179]
;W[la]WL[2241.44]
;B[lb]BL[2237.961]
;W[ma]WL[2239.072]
;B[mb]BL[2236.804]
;W[na]WL[2237.449]
;B[ob]BL[2235.898]
;W[nb]WL[2235.693]
;B[oc]BL[2227.059]
;W[oa]WL[2233.152]
;B[od]BL[2224.784]
;W[pa]WL[2231.709]
;B[mc]BL[2221.346]
;W[md]WL[2229.901]
;B[nd]BL[2219.288]
;W[kc]WL[2228.685]
;B[qb]BL[2217.683]
;W[id]WL[2220.445]
;B[fm]BL[2209.68]
;W[em]WL[2217.797]
;B[fk]BL[2207.185]
;W[ek]WL[2215.77]
;B[gj]BL[2205.048]
;W[fj]WL[2214.004]
;B[gk]BL[2203.532]
;W[gi]WL[2212.002]
;B[ii]BL[2202.691]
;W[ig]WL[2197.858]
;B[kg]BL[2200.706]
;W[ih]WL[2196.43]
;B[ji]BL[2198.717]
;W[je]WL[2194.738]
;B[cm]BL[2094.323]
;W[cn]WL[2187.959]
;B[cl]BL[2092.697]
;W[ck]WL[2184.294]
;B[bk]BL[2088.097]
;W[bm]WL[2182.241]
;B[bl]BL[2086.884]
;W[an]WL[2179.158]
;B[bj]BL[2085.082]
;W[bi]WL[2177.567]
;B[cj]BL[2084.06]
;W[ci]WL[2175.377]
;B[dk]BL[2082.981]
;W[al]WL[2172.101]
;B[el]BL[2081.447]
;W[ck]WL[2170.469]
;B[di]BL[2054.952]
;W[dk]WL[2164.506]
;B[dh]BL[2039.372]
;W[aj]WL[2158.232]
;B[ch]BL[2032.07]
;W[dm]WL[2150.526]
;B[cg]BL[2027.281]
;W[df]WL[2147.9]
;B[cf]BL[2026.406]
;W[ce]WL[2146.507]
;B[be]BL[2025.179]
;W[bd]WL[2144.356]
;B[bh]BL[2022.752]
;W[bf]WL[2142.919]
;B[ae]BL[2021.128]
;W[af]WL[2141.429]
;B[ag]BL[2019.265]
;W[ad]WL[2139.259]
;B[eh]BL[2017.77]
;W[fg]WL[2137.287]
;B[eg]BL[2015.829]
;W[ef]WL[2135.727]
;B[fh]BL[2014.393]
;W[gh]WL[2134.525]
;B[ai]BL[2010.155]
;W[bg]WL[2125.492]
;B[ak]BL[2004.015]
;W[ah]WL[2123.548]
;B[bi]BL[2002.267]
;W[ag]WL[2117.512]
;B[am]BL[1913.805]
;W[bn]WL[2111.575]
;B[al]BL[1911.613]
;W[ei]WL[2108.018]
;B[rg]BL[1896.593]
;W[ps]WL[2102.862]
;B[oq]BL[1893.309]
;W[os]WL[2100.428]
;B[ns]BL[1889.386]
;W[nr]WL[2098.854]
;B[ms]BL[1886.757]
;W[lr]WL[2096.623]
;B[mr]BL[1884.86]
;W[nq]WL[2095.106]
;B[mq]BL[1882.482]
;W[np]WL[2093.796]
;B[oo]BL[1880.901]
;W[mp]WL[2091.359]
;B[lq]BL[1877.977]
;W[op]WL[2089.721]
;B[po]BL[1876.522]
;W[lp]WL[2086.501]
;B[kq]BL[1874.157]
;W[nn]WL[2080.531]
;B[no]BL[1871.544]
;W[mn]WL[2077.745]
;B[mo]BL[1870.446]
;W[lo]WL[2076.658]
;B[qm]BL[1866.621]
;W[kn]WL[2074.957]
;B[jm]BL[1844.235]
;W[lm]WL[2071.903]
;B[ml]BL[1839.643]
;W[kk]WL[2069.071]
;B[kl]BL[1838.287]
;W[ll]WL[2067.808]
;B[lk]BL[1835.398]
;W[jl]WL[2066.282]
;B[km]BL[1833.972]
;W[im]WL[2065.119]
;B[jn]BL[1832.948]
;W[ln]WL[2063.168]
;B[nm]BL[1781.594]
;W[om]WL[2055.398]
;B[on]BL[1757.945]
;W[mk]WL[2052.53]
;B[nl]BL[1728.94]
;W[nk]WL[2043.155]
;B[ol]BL[1725.885]
;W[lj]WL[2039.483]
;B[jk]BL[1713.061]
;W[in]WL[2037.428]
;B[jo]BL[1711.115]
;W[ok]WL[2031.331]
;B[pl]BL[1707.896]
;W[kj]WL[2030.235]
;B[pi]BL[1686.476]
;W[mi]WL[2021.232]
;B[mh]BL[1681.127]
;W[oj]WL[2018.178]
;B[ni]BL[1676.938]
;W[nj]WL[2014.723]
;B[oi]BL[1663.96]
;W[li]WL[2012.426]
;B[ko]BL[1640.779]
;W[pk]WL[2008.056]
;B[qk]BL[1636.026]
;W[lh]WL[2004.734]
;B[kp]BL[1633.392]
;W[lk]WL[2002.656]
;B[mg]BL[1621.079]
;W[go]WL[1966.305]
;B[lg]BL[1612.11]
;W[hi]WL[1959.111]
;B[qr]BL[1572.947]
;W[rr]WL[1947.073]
;B[qs]BL[1570.794]
;W[rs]WL[1945.463]
;B[rq]BL[1567.573]
;W[rp]WL[1942.032]
;B[ps]BL[1524.529]
;W[sq]WL[1935.644]
;B[me]BL[1486.729]
;W[ke]WL[1932.45]
;B[le]BL[1481.896]
;W[sn]WL[1929.062]
;B[sm]BL[1464.53]
;W[jg]WL[1920.156]
;B[kh]BL[1441.66]
;W[qa]WL[1907.849]
;B[rb]BL[1428.655]
;W[ra]WL[1906.133]
;B[sb]BL[1424.442]
;W[]WL[1874.417]
;B[]BL[1424.442]TW[aa][ba][ca][da][ea][fa][ga][ha][ia][ja][ab][bb][cb][db][gb][hb][kb][lb][mb][ac][bc][dc][ec][fc][gc][hc][ic][mc][cd][ed][fd][gd][hd][ae][be][de][ee][ge][ie][ff][gf][hf][gg][hg][ej][ao][bo][co][do][eo][so][ap][bp][cp][ep][fp][sp][aq][bq][cq][dq][eq][rq][ar][br][cr][dr][er][sr][as][bs][cs][ds][es][ss]TB[rc][sc][qd][rd][sd][ne][oe][pe][qe][re][se][mf][of][pf][qf][rf][sf][ng][og][pg][qg][sg][lh][nh][oh][ph][qh][rh][sh][ci][ki][li][mi][qi][ri][si][aj][ij][kj][lj][mj][nj][oj][qj][rj][sj][hk][ik][kk][lk][mk][nk][ok][pk][rk][sk][gl][hl][il][jl][ll][ql][rl][sl][gm][hm][im][lm][om][pm][hn][in][kn][ln][mn][nn][pn][io][lo][ip][lp][mp][np][op][iq][jq][nq][ir][jr][kr][lr][nr][pr][hs][is][js][ks][ls][os])
