(;GM[1]FF[4]CA[UTF-8]AP[CGoban:3]ST[2]
RU[Chinese]SZ[19]KM[7.50]TM[2400]OT[3x20 byo-yomi]
PW[KAMA01]PB[MargoPon]WR[6k]BR[4k]DT[2020-11-07]PC[The KGS Go Server at http://www.gokgs.com/]RE[W+64.50]
;B[pd]BL[2394.691]
;W[dp]WL[2395.825]
;B[dd]BL[2330.804]
;W[pp]WL[2391.185]
;B[qn]BL[2294.905]
;W[pn]WL[2388.095]
;B[qo]BL[2250.617]
;W[po]WL[2386.131]
;B[pm]BL[2187.688]
;W[mn]WL[2376.402]
;B[qj]BL[2108.859]
;W[jp]WL[2367.3]
;B[jc]BL[2003.125]
;W[pc]WL[2359.349]
;B[qc]BL[1916.658]
;W[oc]WL[2356.89]
;B[od]BL[1855.577]
;W[mc]WL[2353.646]
;B[cj]BL[1802.132]
;W[cd]WL[2348.228]
;B[cc]BL[1741.907]
;W[ce]WL[2344.844]
;B[de]BL[1670.081]
;W[dc]WL[2341.323]C[MargoPon [4k\]: 1
KAMA01 [6k\]: что?
]
;B[bc]BL[1527.598]
;W[df]WL[2307.104]
;B[fd]BL[1393.242]
;W[ef]WL[2290.544]
;B[fe]BL[1381.657]
;W[ch]WL[2287.645]
;B[cn]BL[1349.197]
;W[cl]WL[2281.893]
;B[en]BL[1329.246]
;W[el]WL[2277.435]
;B[ej]BL[1307.386]
;W[dk]WL[2274.772]
;B[dj]BL[1264.903]
;W[fm]WL[2258.038]
;B[fo]BL[1215.265]
;W[gn]WL[2252.116]C[MargoPon [4k\]: э этабылаправерка номер а 1
KAMA01 [6k\]: чегоооооо?!
]
;B[fq]BL[1133.274]
;W[do]WL[2243.885]C[MargoPon [4k\]: ???
]
;B[dn]BL[1092.289]
;W[eq]WL[2226.034]
;B[gp]BL[1062.513]
;W[bo]WL[2216.017]
;B[bn]BL[971.719]
;W[bq]WL[2206.796]
;B[an]BL[955.081]
;W[ao]WL[2194.408]
;B[bk]BL[935.728]
;W[bl]WL[2191.756]
;B[al]BL[926.92]
;W[bm]WL[2189.211]
;B[am]BL[916.302]
;W[ep]WL[2184.133]
;B[hq]BL[902.061]
;W[fp]WL[2164.52]
;B[go]BL[896.889]
;W[fn]WL[2162.356]
;B[eo]BL[882.98]
;W[fr]WL[2157.893]
;B[io]BL[868.497]
;W[in]WL[2152.315]
;B[jo]BL[858.449]
;W[kp]WL[2145.121]
;B[jm]BL[828.922]
;W[ho]WL[2132.824]
;B[ip]BL[798.089]
;W[jn]WL[2129.821]
;B[kn]BL[786.122]
;W[ko]WL[2127.593]
;B[kl]BL[754.564]
;W[ln]WL[2123.039]
;B[km]BL[737.935]
;W[om]WL[2121.15]
;B[hl]BL[684.622]
;W[fk]WL[2115.02]
;B[fi]BL[656.477]
;W[hk]WL[2102.254]
;B[hp]BL[631.715]
;W[hn]WL[2097.16]
;B[gl]BL[617.28]
;W[gk]WL[2090.993]
;B[eh]BL[558.524]
;W[di]WL[2087.824]
;B[gh]BL[542.149]
;W[fg]WL[2071.848]
;B[hi]BL[492.319]
;W[ei]WL[2065.528]
;B[fj]BL[484.707]
;W[fh]WL[2062.589]
;B[ij]BL[473.482]
;W[ik]WL[2057.438]C[KAMA01 [6k\]: проверка чего?
]
;B[il]BL[380.966]
;W[jk]WL[2048.363]
;B[fl]BL[371.857]
;W[jl]WL[2041.777]
;B[im]BL[357.722]
;W[em]WL[2032.9]
;B[ek]BL[303.213]
;W[kk]WL[2014.312]
;B[ml]BL[235.588]
;W[nk]WL[2006.173]
;B[dm]BL[20]OB[3]
;W[ll]WL[1994.654]
;B[lm]BL[20]OB[3]
;W[lk]WL[1991.362]
;B[mm]BL[20]OB[3]
;W[nm]WL[1982.806]
;B[dl]BL[20]OB[3]
;W[mk]WL[1980.001]
;B[gm]BL[20]OB[3]
;W[nl]WL[1974.888]
;B[hm]BL[20]OB[3]
;W[pl]WL[1973.114]
;B[bf]BL[20]OB[2]
;W[cf]WL[1965.695]
;B[bh]BL[20]OB[2]
;W[bg]WL[1954.472]
;B[ag]BL[20]OB[2]
;W[cg]WL[1952.377]
;B[bi]BL[20]OB[2]
;W[be]WL[1944.322]
;B[af]BL[20]OB[2]
;W[ae]WL[1941.015]
;B[ah]BL[20]OB[2]
;W[gf]WL[1938.845]
;B[gg]BL[20]OB[2]
;W[ff]WL[1936.762]
;B[hf]BL[20]OB[2]
;W[ge]WL[1933.625]
;B[he]BL[20]OB[2]
;W[gd]WL[1931.015]
;B[fc]BL[20]OB[2]
;W[db]WL[1918.151]
;B[cb]BL[20]OB[1]
;W[gc]WL[1913.159]
;B[eb]BL[20]OB[1]
;W[hd]WL[1897.508]
;B[id]BL[20]OB[1]
;W[ie]WL[1895.78]
;B[ib]BL[20]OB[1]
;W[gb]WL[1889.503]
;B[je]BL[20]OB[1]
;W[if]WL[1887.633]
;B[hg]BL[20]OB[1]
;W[nd]WL[1879.882]
;B[kf]BL[20]OB[1]C[MargoPon [4k\]: руддщ
]
;W[qh]WL[1868.864]C[KAMA01 [6k\]: что?
]
;B[qf]BL[20]OB[1]
;W[pg]WL[1848.896]
;B[rl]BL[20]OB[1]
;W[ql]WL[1846.364]
;B[rk]BL[20]OB[1]
;W[qp]WL[1832.398]
;B[oj]BL[20]OB[1]
;W[ni]WL[1814.432]
;B[ri]BL[20]OB[1]
;W[rh]WL[1812.23]
;B[sj]BL[20]OB[1]
;W[qi]WL[1806.092]
;B[qk]BL[20]OB[1]
;W[rm]WL[1801.104]
;B[sl]BL[20]OB[1]
;W[sh]WL[1796.86]
;B[si]BL[20]OB[1]
;W[rc]WL[1787.079]
;B[qb]BL[20]OB[1]
;W[rd]WL[1782.711]
;B[re]BL[20]OB[1]
;W[qd]WL[1770.284]
;B[of]BL[20]OB[1]
;W[nf]WL[1764.502]
;B[pf]BL[20]OB[1]
;W[og]WL[1759.857]
;B[rb]BL[20]OB[1]
;W[sb]WL[1749.608]
;B[qe]BL[20]OB[1]
;W[pb]WL[1731.689]
;B[sd]BL[20]OB[1]
;W[lg]WL[1719.436]
;B[le]BL[20]OB[1]
;W[oe]WL[1714.584]
;B[sc]BL[20]OB[1]
;W[jg]WL[1699.21]
;B[kg]BL[20]OB[1]
;W[jh]WL[1696.889]
;B[jf]BL[20]OB[1]
;W[ee]WL[1687.331]
;B[da]BL[20]OB[1]
;W[ed]WL[1683.207]
(;B[kd]BL[20]OB[1]
;W[kb]WL[1659.81]
;B[kc]BL[20]OB[1]
;W[lb]WL[1656.032]
;B[kh]BL[20]OB[1]
;W[ji]WL[1652.656]
;B[jj]BL[20]OB[1]
;W[ki]WL[1651.089]
;B[kj]BL[20]OB[1]
;W[li]WL[1647.511]
;B[lj]BL[20]OB[1]
;W[mj]WL[1645.653]
;B[lh]BL[20]OB[1]
;W[mh]WL[1642.837]
;B[kr]BL[20]OB[1]
;W[lq]WL[1638.409]
;B[lr]BL[20]OB[1]
;W[mq]WL[1635.04]
;B[os]BL[20]OB[1]
;W[pr]WL[1630.848]
;B[or]BL[20]OB[1]
;W[mr]WL[1626.846]
;B[ms]BL[20]OB[1]
;W[nr]WL[1610.921]
;B[ns]BL[20]OB[1]
;W[jr]WL[1604.307]
;B[ir]BL[20]OB[1]
;W[js]WL[1596.242]
;B[jq]BL[20]OB[1]
;W[kq]WL[1594.573]
;B[is]BL[20]OB[1]
;W[iq]WL[1591.212]
;B[ec]BL[20]OB[1]
;W[dd]WL[1587.644]
;B[jq]BL[20]OB[1]
;W[lf]WL[1573.261]
;B[ld]BL[20]OB[1]
;W[iq]WL[1570.449]
;B[cp]BL[20]OB[1]
;W[co]WL[1540.124]
;B[jq]BL[20]OB[1]
;W[pi]WL[1499.82]
;B[ok]BL[20]OB[1]
;W[iq]WL[1493.236]
;B[cq]BL[20]OB[1]
;W[jq]WL[1481.312]
;B[br]BL[20]OB[1]
;W[bp]WL[1475.955]
;B[dr]BL[20]OB[1]
;W[hr]WL[1470.787]
;B[gr]BL[20]OB[1]
;W[gs]WL[1468.34]
;B[gq]BL[20]OB[1]
;W[er]WL[1461.288]
;B[sn]BL[20]OB[1]
;W[qm]WL[1451.084]
;B[sm]BL[20]OB[1]
;W[rn]WL[1437.446]
;B[sp]BL[20]OB[1]
;W[ro]WL[1432.776]
;B[so]BL[20]OB[1]
;W[rq]WL[1429.472]
;B[rs]BL[20]OB[1]
;W[sq]WL[1422.664]
;B[pq]BL[20]OB[1]
;W[qr]WL[1418.546]
;B[op]BL[20]OB[1]
;W[no]WL[1408.93]
;B[pa]BL[20]OB[1]
;W[oa]WL[1402.03]
;B[qa]BL[20]OB[1]
;W[nb]WL[1398.604]
;B[rg]BL[20]OB[1]
;W[sg]WL[1395.111]
;B[sf]BL[20]OB[1]
;W[pj]WL[1391.322]
;B[pk]BL[20]OB[1]
;W[ig]WL[1382.187]
;B[ci]BL[20]OB[1]
;W[dh]WL[1374.994]
;B[me]BL[20]OB[1]
;W[ne]WL[1371.792]
;B[mf]BL[20]OB[1]
;W[mg]WL[1369.157]
;B[oi]BL[20]OB[1]
;W[oh]WL[1367.061]
;B[qg]BL[20]OB[1]
;W[ph]WL[1365.652]
;B[pe]BL[20]OB[1]
;W[hj]WL[1343.446]
;B[ii]BL[20]OB[1]
;W[gj]WL[1337.263]
;B[ih]BL[20]OB[1]
;W[mi]WL[1335.199]
;B[gi]BL[20]OB[1]
;W[ia]WL[1325.492]
;B[ja]BL[20]OB[1]
;W[hb]WL[1323.503]
;B[ha]BL[20]OB[1]
;W[ic]WL[1320.835]
;B[hc]BL[20]OB[1]
;W[ga]WL[1265.789]
;B[ic]BL[20]OB[1]
;W[jb]WL[1263.595]
;B[ka]BL[20]OB[1]
;W[la]WL[1261.047]
;B[ia]BL[20]OB[1]
;W[md]WL[1254.722]
;B[lc]BL[20]OB[1]
;W[hs]WL[1242.82]
;B[rp]BL[20]OB[1]C[KAMA01 [6k\]: а по китайским правилам там все доедать надо?
]
;W[ol]WL[1203.605]
;B[nj]BL[20]OB[1]
;W[ks]WL[1184.136]
;B[]BL[20]OB[1]
;W[]WL[1184.135]TW[aa][ba][ca][da][ea][fa][ma][na][ab][bb][cb][eb][fb][mb][ob][ac][bc][cc][ec][fc][nc][ad][bd][fd][de][fe][dg][eg][ng][eh][nh][pm][nn][on][qn][lo][mo][oo][qo][ap][cp][lp][mp][np][op][aq][cq][dq][nq][oq][pq][qq][ar][br][cr][dr][ir][kr][lr][or][rr][sr][as][bs][cs][ds][es][fs][is][ls][ms][ns][os][ps][qs][rs][ss]TB[ra][sa][sb][rc][jd][qd][rd][ke][se][rf][hh][ai][aj][bj][rj][ak][ck][dk][sk][bl][cl][el][bm][cm][em][fm][fn][gn][hn][in][jn][ho]C[KAMA01 [5k\]: спасибо за игру!
])
(;B[kr]BL[20]OB[1]))
