Название: Кубок Посла Китая по вейци 2020 (онлайн),,,,,,,,,,,,,,,,,,,
Место проведения: KGS,,,,,,,,,,,,,,,,,,,
Система: Мак Магон,,,,,,,,,,,,,,,,,,,
Дата начала: 7 ноября 2020 г.,,,,,,,,,,,,,,,,,,,
Дата окончания: 8 ноября 2020 г.,,,,,,,,,,,,,,,,,,,
,,,,,,,,,,,,,,,,,,,
N,Фамилия,СН,Ник КГС,Рейт,Ранг,Город,ММо,1,1_model,1_model,2,2_model,2_model,3,3_model,3_model,4,4_model,4_model,5,5_model,5_model,6,6_model,6_model,ММ,Поб,Бухг,Рейт
1,Бурнаевский Игорь,5,HappyLook,2611,6d,Москва,11,0+!,,,0-!,,,0+!,,,7+,,,3+,,,2-,,,15,4,85,2611
2,Муромцев Александр,18,sai1732,2373,3d,Москва,10,8-,,,28+,,,16+,,,13+,,,4+,,,1+,,,15,5,81,2373
3,Шахов Ким,2,kim2002,2618,6d,Москва,10,25+,,,14+,,,15+,,,6+,,,1-,,,5+,,,15,5,81,2618
4,Немлий Игорь,3,Estryx,2618,6d,Казань,11,0+!,,,0-!,,,0-!,,,11+,,,2-,,,12+,,,14,3,83,"40,2618
5,Мезин Савва,10,Savva02,2489,4d,Москва,11,0-!,,,0+!,,,0-!,,,0+!,,,9+,,,3-,,,14,3,82,2489
6,Николич Николай,11,sdg,2488,4d,Москва,11,0-!,,,0+!,,,0-!,,,3-,,,14+,,,7+,,,14,3,82,2488
7,Деменьшин Рахмат,14,Rahmat,2437,4d,Сергиев Посад,10,24+,,,17+,,,12+,,,1-,,,8+,,,6-,,,14,4,81,2437
8,Кульков Андрей,1,kulkov,2631,6d,Казань,10,2+,,,12-,,,18+,,,22+,,,7-,,,17+,,,14,4,80,2631
9,Барыкин Никита,9,Ekb,2549,5d,Екатеринбург,11,0-!,,,0+!,,,0-!,,,15+,,,5-,,,19+,,,14,3,80,2549
10,Бурдакова Дина,7,Pugovka,2586,5d,Москва,11,0-!,,,0-!,,,11-,,,20+,,,15+,,,18+,,,14,3,"79,5",2586
11,Лавров Егор,17,LavEgor,2394,3d,Москва,10,23-,,,33+,,,10+,,,4-,,,16+,,,13+,,,14,4,77,2394
12,Пищальников Артемий,21,ar4,2307,3d,Соликамск,10,19+,,,8+,,,7-,,,14-,,,17+,,,4-,,,13,3,81,2307
13,Ковалёва Наталья,8,Nata,2585,5d,Челябинск,11,0-!,,,0-!,,,14+,,,2-,,,26+,,,11-,,,13,2,"80,5",2585
14,Прикарев Никита,22,PrikarevA,2299,2d,Москва,10,18+,,,3-,,,13-,,,12+,,,6-,,,23+,,,13,3,80,2299
15,Крайнов Антон,20,handbell,2319,3d,Москва,10,21+,,,23+,,,3-,,,9-,,,10-,,,26+,,,13,3,80,2319
16,Затонских Антон,6,antonkhv,2598,5d,Хабаровск,11,0-!,,,0-!,,,2-,,,23+,,,11-,,,29+,,,13,2,"79,5",2598
17,Хусаинов Аскар,24,AskarKzn,2297,2d,Казань,10,22+,,,7-,,,21+,,,19+,,,12-,,,8-,,,13,3,79,2297
18,Шальнева Виржиния,15,Virginia,2423,4d,Жуковский,10,14-,,,20+,,,8-,,,33+,,,22+,,,10-,,,13,3,77,2423
19,Яковцев Дмитрий,13,s8ession,2439,4d,Барнаул,10,12-,,,24+,,,23+,,,17-,,,27+,,,9-,,,13,3,76,2439
20,Носков Павел,26,Gekirin,2241,2d,Пермь,9,27+,,,18-,,,29+,,,10-,,,42+,,,22+,,,13,4,73,2241
21,Хабазов Никита,12,QUSAWA,2471,4d,Нижний Новгород,10,15-,,,25+,,,17-,,,26-,,,33+,,,27+,,,13,3,73,2471
22,Нечаев Алексей,16,Alone,2402,4d,Москва,10,17-,,,26+,,,34+,,,8-,,,18-,,,20-,,,12,2,"77,5","24,2402
23,Смородский Артем,25,Artem2311,2257,2d,Санкт-Петербург,10,11+,,,15-,,,19-,,,16-,,,35+,,,14-,,,12,2,77,2257
24,Клочихина Валерия,23,Lera2005,2299,2d,Соликамск,10,7-,,,19-,,,27-,,,30+,,,28+,,,32-,,,12,2,75,2299
25,Хавин Вадим,19,VIH,2361,3d,Москва,10,3-,,,21-,,,28+,,,27-,,,29-,,,38+,,,12,2,75,2361
26,Игонин Алексей,27,AlexiGo,2211,2d,Москва,9,51+,,,22-,,,30+,,,21+,,,13-,,,15-,,,12,3,74,2211
27,Гудков Семен,30,Unknown,2182,1d,Павловский Посад,9,20-,,,35+,,,24+,,,25+,,,19-,,,21-,,,12,3,74,2182
28,Клочихин Иван,29,Ivan2006,2193,1d,Соликамск,9,37+,,,2-,,,25-,,,42+,,,24-,,,39+,,,12,3,71,2193
29,Гимадиев Артур,32,TigerGo,2143,1d,Казань,9,33-,,,42+,,,20-,,,36+,,,25+,,,16-,,,12,3,70,2143
30,Макаров Кирилл,37,MKirill,1905,3k,Магадан,8,31+,,,51+,,,26-,,,24-,,,36+,,,35+,,,12,4,69,1905
31,Щепанюк Александр,40,Sasha2009,1800,4k,,8,30-,,,52+,,,37+,,,35-,,,43+,,,33+,,,12,4,64,1800
32,Лифанова Ксения,38,TebTengri,1848,4k,Москва,8,35-,,,39-,,,54+,,,53+,,,46+,,,24+,,,12,4,62,1848
33,Тарасов Руслан,28,burunduk,2210,2d,Казань,9,29+,,,11-,,,36+,,,18-,,,21-,,,31-,,,11,2,75,2210
34,Кашаев Андрей,4,wasd,2614,6d,Москва,11,0-!,,,0-!,,,22-,,,0-!,,,0-!,,,0-!,,,11,0,73,2614
35,Крайнов Ярослав,34,Yaroslav06,2029,1k,Москва,8,32+,,,27-,,,38+,,,31+,,,23-,,,30-,,,11,3,71,2029
36,Галимов Александр,41,Alex2009,1800,4k,Челябинск,8,41+,,,37+,,,33-,,,29-,,,30-,,,42+,,,11,3,67,1800
37,Серахов Дмитрий,33,Wim,2060,1k,Москва,9,28-,,,36-,,,31-,,,40+,,,38-,,,45+,,,11,2,67,2060
38,Бурлаченко Алексей,43,astrolirik,1770,5k,Севастополь,7,45+,,,41+,,,35-,,,43+,,,37+,,,25-,,,11,4,65,1770
39,Чуркин Сергей,48,serjikus,1644,7k,Жуковский,7,40+,,,32+,,,43-,,,44+,,,54+,,,28-,,,11,4,64,1644
40,Игонин Сергей,44,Ykatan,1735,5k,Москва,7,39-,,,46+,,,64+,,,37-,,,52+,,,43+,,,11,4,60,1735
41,Мазлова Софья,36,xantippa,1954,2k,Москва,8,36-,,,38-,,,53-,,,63+,,,56+,,,44+,,,11,3,"58,5","27,1954
42,Деменьшин Мухаммат,39,hgf,1812,4k,Сергиев Посад,8,43+,,,29-,,,52+,,,28-,,,20-,,,36-,,,10,2,67,1812
43,Оголь Артем,35,brusok1995,1996,2k,Москва,8,42-,,,44+,,,39+,,,38-,,,31-,,,40-,,,10,2,65,1996
44,Макаров Андрей,42,Andrey1234,1771,5k,Хабаровск,7,58+,,,43-,,,55+,,,39-,,,53+,,,41-,,,10,3,59,1771
45,Пономарева Радмила,47,MilaPon1,1673,6k,Ижевск,7,38-,,,64-,,,47+,,,55+,,,65+,,,37-,,,10,3,58,1673
46,Резницкий Максим,51,mreznits,1551,8k,Москва,6,67+,,,40-,,,76+,,,65+,,,32-,,,54+,,,10,4,55,1551
47,Колобов Родион,60,Rodion2012,1413,10k,Калининград,6,50+,,,53-,,,45-,,,75+,,,58+,,,52+,,,10,4,54,1413
48,Пономарев Лев,52,LeoPon,1518,8k,Ижевск,6,55-,,,59+,,,57-,,,60+,,,68+,,,0+!,,,10,4,53,1518
49,Бондаренко Виталий,45,BondVi,1705,6k,Москва,7,52-,,,54-,,,63-,,,59+,,,55+,,,57+,,,10,3,53,1705
50,Травкин Дмитрий,55,TraDim,1489,9k,Люберцы,6,47-,,,57-,,,70+,,,66+,,,63+,,,53+,,,10,4,52,1489
51,Нагорнов Олег,31,Oleg007,2153,1d,Москва,9,26-,,,30-,,,0-!,,,0-!,,,0-!,,,0-!,,,9,0,63,2153
52,Эдгеев Галзан,49,Player08,1626,7k,Москва,7,49+,,,31-,,,42-,,,64+,,,40-,,,47-,,,9,2,62,1626
53,Месенко Иван,50,Strengwert,1598,7k,Москва,6,63+,,,47+,,,41+,,,32-,,,44-,,,50-,,,9,3,61,1598
54,Винокуров Владислав,54,Vlad,1501,8k,Москва,6,65+,,,49+,,,32-,,,76+,,,39-,,,46-,,,9,3,58,1501
55,Абзалилов Кирилл,58,Rofyga,1417,10k,Казань,6,48+,,,58+,,,44-,,,45-,,,49-,,,69+,,,9,3,57,1417
56,Сгибнева Софья,53,SofiaQu,1506,8k,Москва,6,64-,,,61+,,,66+,,,57+,,,41-,,,0-!,,,9,3,55,1506
57,Зулаев Денис,69,Denis122,1298,11k,Солнечногорск,5,78+,,,50+,,,48+,,,56-,,,72+,,,49-,,,9,4,"54,5",1298
58,Осиповский Александр,46,ano1910,1685,6k,Москва,7,44-,,,55-,,,65-,,,61+,,,47-,,,68+,,,9,2,54,1685
59,Чернова Анастасия_А,64,Nastena,1368,10k,Жуковский,5,60+,,,48-,,,72+,,,49-,,,66+,,,65+,,,9,4,53,1368
60,Малько Павел,72,PavelMalko,1258,12k,Санкт-Петербург,5,59-,,,77+,,,62+,,,48-,,,71+,,,63+,,,9,4,51,1258
61,Феоктистов Григорий,66,GeoFeo,1326,11k,Москва,5,72+,,,56-,,,75+,,,58-,,,84+,,,67+,,,9,4,"48,5",1326
62,Кириллин Марк,63,mk13,1372,10k,Казань,5,69-,,,78+,,,60-,,,80+,,,70+,,,77+,,,9,4,46,1372
63,Куколев Демид,56,Demid,1463,9k,Нижний Новгород,6,53-,,,69+,,,49+,,,41-,,,50-,,,60-,,,8,2,57,1463
64,Петренко Николай,59,Runhard,1416,10k,Козельск,6,56+,,,45+,,,40-,,,52-,,,0-!,,,0-!,,,8,2,56,"19,1416
65,Дмитриев Федор,61,ARCH,1413,10k,Ижевск,6,54-,,,75+,,,58+,,,46-,,,45-,,,59-,,,8,2,54,1413
66,Остроумов Андрей,73,Andrew2009,1249,12k,Нижний Новгород,5,71+,,,67+,,,56-,,,50-,,,59-,,,80+,,,8,3,"51,5",1249
67,Борисова Мария_А,57,masha2008,1446,9k,Челябинск,6,46-,,,66-,,,69+,,,68-,,,73+,,,61-,,,8,2,51,1446
68,Коюшев Богдан,77,bogdan,1195,13k,Москва,4,79+,,,71+,,,73+,,,67+,,,48-,,,58-,,,8,4,50,1195
69,Решетников Александр,71,XOcognac,1285,11k,Челябинск,5,62+,,,63-,,,67-,,,86+,,,76+,,,55-,,,8,3,47,1285
70,Смирнова Алиса,70,AlisaSM,1291,11k,Арзамас,5,76-,,,80+,,,50-,,,81+,,,62-,,,75+,,,8,3,47,1291
71,Коломиец Виктория,65,Vika2010,1361,10k,Жуковский,5,66-,,,68-,,,77+,,,78+,,,60-,,,81+,,,8,3,46,1361
72,Волошин Андрей,74,Kanzler,1248,12k,Солнечногорск,5,61-,,,82+,,,59-,,,90+,,,57-,,,94+,,,8,3,46,1248
73,Пономарева Маргарита,68,MargoPon,1298,11k,Ижевск,5,75-,,,88+,,,68-,,,79+,,,67-,,,82+,,,8,3,43,1298
74,Мизгирева Юлия,90,umiz,982,15k,Пермь,3,98+,,,79-,,,105+,,,89+,,,87+,,,76+,,,8,5,36,982
75,Урманче Камиль,75,KAMA01,1240,12k,Казань,5,73+,,,65-,,,61-,,,47-,,,79+,,,70-,,,7,2,50,1240
76,Игонин Иван,62,IvaniGo,1391,10k,Москва,5,70+,,,89+,,,46-,,,54-,,,69-,,,74-,,,7,2,49,1391
77,Романенко Мария,81,MariaRoma,1147,13k,Москва,4,81+,,,60-,,,71-,,,83+,,,91+,,,62-,,,7,3,46,1147
78,Фирсанов Александр,76,AleksandrF,1231,12k,Москва,5,57-,,,62-,,,82+,,,71-,,,81-,,,88+,,,7,2,46,1231
79,Жуков Матвей,82,matvey,1126,13k,Челябинск,4,68-,,,74+,,,89+,,,73-,,,75-,,,90+,,,7,3,43,1126
80,Травкин Александр,80,TRAFF,1159,13k,Люберцы,4,95+,,,70-,,,94+,,,62-,,,86+,,,66-,,,7,3,43,1159
81,Васютинский Кирилл,85,keer5rill,1078,14k,Долгопрудный,4,77-,,,90+,,,88+,,,70-,,,78+,,,71-,,,7,3,42,1078
82,Штомпель Леонид,83,Leonid2019,1084,14k,Ростов-на-Дону,4,87+,,,72-,,,78-,,,92+,,,88+,,,73-,,,7,3,41,1084
83,Юндунова Янжина,95,Yanzhina,925,16k,Реутов,3,93+,,,86-,,,95+,,,77-,,,97+,,,87+,,,7,4,36,925
84,Кохтарев Дмитрий,88,DmitryKOX,985,15k,Москва,3,99+,,,87-,,,103+,,,98+,,,61-,,,86+,,,7,4,36,985
85,Корибов Геннадий,106,Amanay,717,19k,Старый Оскол,2,101+,,,98+,,,91-,,,99+,,,93+,,,92+,,,7,5,33,717
86,Зуев Макар,86,Makar,1036,15k,Москва,3,91+,,,83+,,,87+,,,69-,,,80-,,,84-,,,6,3,41,1036
87,Новошинский Сергей,79,Serg361,1180,13k,Москва,4,82-,,,84+,,,86-,,,91+,,,74-,,,83-,,,6,2,41,1180
88,Казаков Яромир,78,iaromir07,1191,13k,Москва,4,89+,,,73-,,,81-,,,94+,,,82-,,,78-,,,6,2,41,1191
89,Вердиев Вагиф,67,Vagif,1317,11k,Москва,5,88-,,,76-,,,79-,,,74-,,,90-,,,100+,,,6,1,39,1317
90,Козлова Анна,93,ANNgel,940,16k,Жуковский,3,97+,,,81-,,,100+,,,72-,,,89+,,,79-,,,6,3,38,940
91,Бараненко Глеб,92,COFFEE,972,16k,Москва,3,86-,,,96+,,,85+,,,87-,,,77-,,,104+,,,6,3,37,972
92,Мударисова Лейла,98,Leylastar,847,17k,Казань,2,102+,,,97+,,,93+,,,82-,,,95+,,,85-,,,6,4,36,847
93,Елисеева Татьяна-К,89,Tanya,984,15k,Калининград,3,83-,,,104+,,,92-,,,96+,,,85-,,,101+,,,6,3,36,984
94,Сардаров Марк,91,Widgi,977,15k,Москва,3,103+,,,95+,,,80-,,,88-,,,107+,,,72-,,,6,3,36,977
95,Каринский Георгий,84,Goga4,1079,14k,Москва,4,80-,,,94-,,,83-,,,103+,,,92-,,,102+,,,6,2,36,1079
96,Осман Игорь,102,IGOR228,745,19k,Солнечногорск,2,100+,,,91-,,,104+,,,93-,,,99+,,,97+,,,6,4,32,745
97,Здановский Алексей,87,AlexZd,1001,15k,Калининград,3,90-,,,92-,,,102+,,,101+,,,83-,,,96-,,,5,2,35,1001
98,Мялицин Никита,96,NikitaMyal,914,16k,Краснотурьинск,3,74-,,,85-,,,109+,,,84-,,,100-,,,110+,,,5,2,35,914
99,Паращина Арина,94,Arina7,937,16k,Николаевск-на-Амуре,3,84-,,,105-,,,115+,,,85-,,,96-,,,111+,,,5,2,32,937
100,Арсентьев Григорий,109,Grisha,634,20k,Москва,2,96-,,,114+,,,90-,,,110+,,,98+,,,89-,,,5,3,31,634
101,Коюшев Роман,99,Romeo,846,17k,Москва,2,85-,,,108+,,,117+,,,97-,,,111+,,,93-,,,5,3,"30,5","12,846
102,Дунаев Егор,104,EgorDunaev,739,19k,Москва,2,92-,,,111+,,,97-,,,108+,,,103+,,,95-,,,5,3,30,739
103,Дунаев Максим,97,MaxDunaev,883,17k,Москва,3,94-,,,115+,,,84-,,,95-,,,102-,,,119+,,,5,2,30,883
104,Лебедев Матвей,101,matvei,816,18k,Москва,2,118+,,,93-,,,96-,,,116+,,,108+,,,91-,,,5,3,"29,5","11,816
105,Зубарев Алексей,103,alexzu,744,19k,Тула,2,120+,,,99+,,,74-,,,0-!,,,0-!,,,116+,,,5,3,"28,5",744
106,Мокин Иван,110,IvanMokin,613,20k,Санкт-Петербург,1,109-,,,110-,,,124+,,,119+,,,123+,,,107+,,,5,4,19,613
107,Качурин Алексей,105,Alex062019,728,19k,Москва,2,0-!,,,0-!,,,0+!,,,109+,,,94-,,,106-,,,4,2,27,"7,728
108,Дубровин Александр,113,acc4go,599,21k,Пенза,1,122+,,,101-,,,112+,,,102-,,,104-,,,121+,,,4,3,25,599
109,Колодкин Олег,115,olegkol,494,22k,Владивосток,1,106+,,,112+,,,98-,,,107-,,,110-,,,124+,,,4,3,24,494
110,Гладкова Мария,119,leiaorgana,218,27k,Москва,0,126+,,,106+,,,123+,,,100-,,,109+,,,98-,,,4,4,"22,5","12,218
111,Хен Дмитрий,116,dima228,423,23k,Хабаровск,1,123+,,,102-,,,125+,,,115+,,,101-,,,99-,,,4,3,21,423
112,Крайнов Даниил,100,Danybat,821,18k,Москва,2,115-,,,109-,,,108-,,,123+,,,116+,,,113-,,,4,2,20,821
113,Воронова Алла,125,gull,99,29k,Москва,0,0-!,,,0-!,,,0+!,,,122+,,,120+,,,112+,,,4,4,16,"11,99
114,Власов Артем,118,Artem1,226,27k,Череповец,0,125+,,,100-,,,119-,,,0+!,,,124+,,,115+,,,4,4,16,226
115,Кохтарев Михаил,107,MishaKOX,677,19k,Москва,2,112+,,,103-,,,99-,,,111-,,,121-,,,114-,,,3,1,25,677
116,Хачкинаян Диана,112,dianagrin,600,20k,Ростов-на-Дону,1,117-,,,124+,,,121+,,,104-,,,112-,,,105-,,,3,2,"23,5",600
117,Братовников Ярослав,117,HideTheOne,357,25k,Москва,1,116+,,,118+,,,101-,,,0-!,,,0-!,,,0-!,,,3,2,23,"7,357
118,Морозов Ефим,108,Efim2013,651,20k,Москва,2,104-,,,117-,,,120+,,,0-!,,,0-!,,,0-!,,,3,1,23,651
119,Борисенко Артем,126,Sans,55,30k,Вологда,0,121-,,,122+,,,114+,,,106-,,,125+,,,103-,,,3,3,21,55
120,Макеев Кирилл,114,KIRILLMAK,551,21k,Челябинск,1,105-,,,126-!,,,118-,,,125+,,,113-,,,123+,,,3,2,"17,5",551
121,Бабина Александра,120,gfgd2,196,27k,Владивосток,0,119+,,,123-,,,116-,,,0+!,,,115+,,,108-,,,3,3,17,196
122,Морозова Устина,122,MorozovaUs,138,28k,Нижний Новгород,0,108-,,,119-,,,0+!,,,113-,,,126+,,,125+,,,3,3,15,138
123,Яржомбек Федор,111,Fedya555,601,20k,Москва,1,111-,,,121+,,,110-,,,112-,,,106-,,,120-,,,2,1,23,601
124,Гринченко Ксения,121,FufiX,179,28k,Солнечногорск,0,0+!,,,116-,,,106-,,,126+,,,114-,,,109-,,,2,2,20,179
125,Побережная Галина,123,Gaja,120,28k,Москва,0,114-,,,0+!,,,111-,,,120-,,,119-,,,122-,,,1,1,19,120